<svg xmlns="http://www.w3.org/2000/svg" viewBox="0 0 64 64">
  <defs id="defs3051">
    <style type="text/css" id="current-color-scheme">
      .ColorScheme-Background {
        color:#eff0f1;
      }
      .ColorScheme-Highlight {
        color:#3daee9;
      }
      </style>
  </defs>
  <path
     style="fill:currentColor;fill-opacity:1;stroke:none;"
     d="M 4.3219601,58.31013 C 2.7336439,57.96615 1.2571842,56.77274 0.54269143,55.25539 -0.03728778,54.02368 -0.01794015,54.61019 0.01482585,39.25208 0.04292243,26.1087 0.05452102,25.2511 0.21287169,24.72885 0.50337622,23.77028 1.0895347,22.77214 1.7327462,22.14063 l 0.5910179,-0.58026 6.998e-4,-5.63113 C 2.3248238,12.56559 2.3634586,10.05599 2.4202526,9.69683 2.7458125,7.63696 4.2192027,6.00218 6.214589,5.48686 6.673383,5.36838 8.3992524,5.34912 18.554443,5.34912 h 11.806438 l 2.424385,2.40511 2.424364,2.40513 10.916427,0.002 c 12.073556,0.002 11.62943,-0.0189 12.811286,0.59687 0.744679,0.38798 1.39684,0.99027 1.898948,1.75373 0.523756,0.79637 0.74539,1.57135 0.800793,2.80011 l 0.0467,1.03586 0.455634,0.38092 c 0.819591,0.68523 1.535053,1.91656 1.746127,3.00514 0.151702,0.78244 0.15704,33.66003 0.005,34.37681 -0.393742,1.86337 -1.679125,3.30249 -3.618759,4.05162 l -0.617574,0.23853 -27.382658,0.0162 C 9.8022211,58.43045 4.7870833,58.41115 4.3214301,58.31049 Z"
     class="ColorScheme-Highlight" 
     />
  <path
     style="fill-opacity:0.02;fill-rule:evenodd;"
     d="M 4.6515898,58.34921 C 3.0244584,58.10997 1.5099834,57.01962 0.71107086,55.5122 0.09212643,54.34432 0.08755698,54.29203 0.08602717,48.34745 c -9.9984e-4,-5.00418 0.007999,-5.33799 0.16189024,-5.37767 0.15306132,-0.0397 0.15288134,-0.043 -0.003,-0.053 -0.15822068,-0.0105 -0.16472989,-0.40577 -0.13687329,-8.31302 0.0263967,-7.49742 0.0442946,-8.34532 0.18627726,-8.746 0.3045632,-0.8604 0.77043632,-1.59298 1.43389532,-2.25481 0.74114,-0.73931 1.4135878,-1.12384 2.4754683,-1.4156 C 4.8705331,22.00412 5.1266318,22 15.827905,22 H 26.77017 l 1.603223,-3.18841 c 0.881764,-1.75362 1.581538,-3.20988 1.555071,-3.23614 -0.02639,-0.0262 -1.157909,1.09171 -2.514293,2.48436 L 24.948052,20.5919 14.592087,20.6253 4.2361305,20.6587 3.6824781,20.86583 c -0.3045128,0.11392 -0.7129529,0.31164 -0.9076491,0.43939 -0.1946863,0.12776 -0.377884,0.23227 -0.4071003,0.23227 -0.029197,0 -0.038296,-2.67454 -0.020198,-5.94343 C 2.3837266,9.04996 2.362529,9.30094 2.9878426,8.04143 3.6078668,6.79269 5.0762876,5.69903 6.4690675,5.44869 6.8447918,5.38119 10.755455,5.34909 18.640392,5.34909 h 11.617772 l 2.408466,2.38199 2.408466,2.382 11.216821,0.0474 c 8.927759,0.0377 11.283442,0.0721 11.543351,0.16862 1.596646,0.5927 2.615621,1.42341 3.210918,2.61769 0.383533,0.76943 0.617244,1.86343 0.602746,2.82142 -0.008,0.51451 0.0198,0.62354 0.187257,0.73982 0.214594,0.14904 0.81394,0.76785 1.124933,1.16148 0.311621,0.39445 0.768396,1.43297 0.90231,2.05152 0.176008,0.81299 0.188367,23.18423 0.0128,23.18636 -0.09099,10e-4 -0.09039,0.0179 0.003,0.0766 0.09539,0.0601 0.114195,1.18289 0.09329,5.57199 l -0.02619,5.49681 -0.254369,0.69137 c -0.629673,1.71146 -1.946522,2.94891 -3.722976,3.49849 -0.463273,0.14333 -2.54051,0.15601 -27.650324,0.16881 -14.932168,0.007 -27.3823782,-0.0205 -27.6671336,-0.0623 z"
     />
  <path
     style="fill-opacity:0.04;fill-rule:evenodd;"
     d="M 4.6515898,58.34921 C 3.0244584,58.10997 1.5099834,57.01962 0.71107086,55.5122 0.09212643,54.34432 0.08755698,54.29203 0.08602717,48.34745 c -9.9984e-4,-5.00418 0.007999,-5.33799 0.16189024,-5.37767 0.15306132,-0.0397 0.15288134,-0.043 -0.003,-0.053 -0.15822068,-0.0105 -0.16472989,-0.40577 -0.13687329,-8.31302 0.0263967,-7.49742 0.0442946,-8.34532 0.18627726,-8.746 0.3045632,-0.8604 0.77043632,-1.59298 1.43389532,-2.25481 0.74114,-0.73931 1.4135878,-1.12384 2.4754683,-1.4156 C 4.8705331,22.00412 5.1266318,22 15.827905,22 H 26.77017 l 1.603223,-3.18841 c 0.881764,-1.75362 1.581538,-3.20988 1.555071,-3.23614 -0.02639,-0.0262 -1.157909,1.09171 -2.514293,2.48436 L 24.948052,20.5919 14.592087,20.6253 4.2361305,20.6587 3.6824781,20.86583 c -0.3045128,0.11392 -0.7129529,0.31164 -0.9076491,0.43939 -0.1946863,0.12776 -0.377884,0.23227 -0.4071003,0.23227 -0.029197,0 -0.038296,-2.67454 -0.020198,-5.94343 C 2.3837267,9.04996 2.3625293,9.30094 2.987843,8.04143 3.6078672,6.79269 5.076288,5.69903 6.4690679,5.44869 6.8448321,5.38119 10.762314,5.34909 18.664349,5.34909 h 11.641709 l 0.104348,0.19331 c 0.09978,0.18479 1.431575,3.38838 2.197661,5.28624 l 0.363516,0.90056 12.178973,10e-4 c 13.381067,10e-4 12.686502,-0.0269 13.802395,0.56288 1.39129,0.73526 2.429834,2.18059 2.659906,3.70181 0.04629,0.30599 0.129294,0.46233 0.311881,0.5873 0.784685,0.5371 1.693794,2.00696 1.937364,3.13239 0.177159,0.81859 0.190767,23.19033 0.0142,23.19247 -0.09099,0.001 -0.09039,0.0179 0.003,0.0766 0.09539,0.06 0.114186,1.1829 0.09329,5.572 l -0.02619,5.49681 -0.254369,0.69137 c -0.629673,1.71145 -1.946532,2.94891 -3.722986,3.49849 -0.463273,0.14333 -2.540499,0.15601 -27.650314,0.16881 -14.932168,0.007 -27.3823878,-0.0205 -27.6671331,-0.0623 z"
     />
  <path
     style="fill-opacity:0.15;fill-rule:evenodd;"
     d="M 4.6515898,58.34921 C 2.1580843,57.98259 0.08346748,55.62972 0.08842688,53.17403 l 9.9983e-4,-0.50877 0.20858454,0.60662 c 0.56668082,1.64814 1.90731715,2.96078 3.61176925,3.53632 l 0.6064358,0.20478 27.1027527,0.0254 c 18.625675,0.0175 27.303235,-0.005 27.743713,-0.0719 1.211711,-0.18406 2.479947,-0.87458 3.297367,-1.79533 0.457384,-0.51521 1.045572,-1.59868 1.209712,-2.22836 l 0.120586,-0.46252 -0.03349,0.78629 c -0.09839,2.3047 -1.662797,4.25686 -3.987774,4.97614 -0.463283,0.14333 -2.54051,0.15602 -27.650324,0.16881 -14.932168,0.007 -27.3823779,-0.0204 -27.6671331,-0.0623 z M 2.347761,15.594 C 2.3766575,10.37066 2.3994547,9.58902 2.536338,9.1425 3.1258861,7.21829 4.6647283,5.77299 6.4692879,5.44863 6.8450421,5.38113 10.762544,5.34903 18.664589,5.34903 h 11.641699 l 0.104337,0.19331 c 0.09979,0.18479 1.431586,3.38838 2.197662,5.28624 l 0.363526,0.90056 12.178972,0.001 c 13.426582,10e-4 12.676194,-0.03 13.843271,0.5824 0.767357,0.4027 1.703512,1.34756 2.082236,2.10159 0.298334,0.59397 0.643182,1.73006 0.552473,1.82001 -0.02569,0.0255 -0.238521,-0.065 -0.472852,-0.20117 -0.234323,-0.13616 -0.688946,-0.33676 -1.010267,-0.4458 l -0.5842,-0.19824 -14.74552,-0.0268 -14.745519,-0.0268 -2.561057,2.62791 -2.561078,2.62792 -10.355956,0.0335 -10.3559554,0.0335 -0.5536624,0.20713 c -0.3045129,0.11392 -0.7129431,0.31166 -0.9076393,0.43941 -0.1946862,0.12774 -0.3778838,0.23227 -0.4070903,0.23227 -0.029197,0 -0.038295,-2.67456 -0.020198,-5.94343 z"
     />
  <path
     style="fill-opacity:0.2;fill-rule:evenodd;"
     d="M 4.6515898,58.34921 C 2.1580843,57.98259 0.08346748,55.62972 0.08842688,53.17403 l 9.9983e-4,-0.50877 0.20858454,0.60662 c 0.56668082,1.64814 1.90731715,2.96078 3.61176925,3.53632 l 0.6064358,0.20478 27.1027527,0.0254 c 18.625675,0.0175 27.303235,-0.005 27.743713,-0.0719 1.211711,-0.18406 2.479947,-0.87458 3.297367,-1.79533 0.457384,-0.51521 1.045572,-1.59868 1.209712,-2.22836 l 0.120586,-0.46252 -0.03349,0.78629 c -0.09839,2.3047 -1.662797,4.25686 -3.987774,4.97614 -0.463283,0.14333 -2.54051,0.15602 -27.650324,0.16881 -14.932168,0.007 -27.3823779,-0.0204 -27.6671331,-0.0623 z M 2.3237641,20.70489 c 0,-0.51564 0.036996,-0.83254 0.097188,-0.83254 0.053493,0 0.1899167,-0.0884 0.3032229,-0.19642 0.3058826,-0.29163 1.1017056,-0.61859 1.7656745,-0.72542 0.368805,-0.0593 3.8975343,-0.0945 9.5160595,-0.095 l 8.929899,-7.1e-4 1.099526,-0.54137 c 0.604747,-0.29776 2.164045,-1.07041 3.465107,-1.717 1.301071,-0.6466 2.379429,-1.16191 2.396357,-1.14512 0.01699,0.0168 -1.089587,1.18018 -2.45889,2.58535 l -2.489646,2.55487 -10.355956,0.0336 -10.3559555,0.0335 -0.5536624,0.20713 c -0.3045129,0.11392 -0.7129431,0.31165 -0.9076393,0.4394 -0.1946862,0.12774 -0.3758841,0.23227 -0.4026408,0.23227 -0.026697,0 -0.048694,-0.37465 -0.048694,-0.83255 z"
     />
 <path 
     style="fill:currentColor;fill-opacity:0.6;stroke:none" 
     d="M 22 27 L 22 47 L 42 47 L 42 27 L 22 27 z M 23 28 L 41 28 L 41 30 L 23 30 L 23 28 z M 24 31 L 25 31 L 25 35 L 24 35 L 24 31 z M 26 31 L 27 31 L 27 35 L 26 35 L 26 31 z M 28 31 L 29 31 L 29 35 L 28 35 L 28 31 z M 30 31 L 31 31 L 31 35 L 30 35 L 30 31 z M 32 31 L 33 31 L 33 35 L 32 35 L 32 31 z M 34 31 L 35 31 L 35 35 L 34 35 L 34 31 z M 36 31 L 37 31 L 37 35 L 36 35 L 36 31 z M 39 32 L 41 32 L 41 33 L 39 33 L 39 32 z M 23 36 L 41 36 L 41 38 L 23 38 L 23 36 z M 24 39 L 25 39 L 25 43 L 24 43 L 24 39 z M 26 39 L 27 39 L 27 43 L 26 43 L 26 39 z M 28 39 L 29 39 L 29 43 L 28 43 L 28 39 z M 30 39 L 31 39 L 31 43 L 30 43 L 30 39 z M 32 39 L 33 39 L 33 43 L 32 43 L 32 39 z M 34 39 L 35 39 L 35 43 L 34 43 L 34 39 z M 36 39 L 37 39 L 37 43 L 36 43 L 36 39 z M 39 40 L 41 40 L 41 41 L 39 41 L 39 40 z M 23 44 L 41 44 L 41 46 L 23 46 L 23 44 z "
     class="ColorScheme-Background"
     />
</svg>
